<svg xmlns="http://www.w3.org/2000/svg" width="202.706" height="49.002" viewBox="0 0 202.706 49.002">
  <g id="STANGAone1_new_logo_2019" transform="translate(-11.2 -12.801)">
    <g id="Group_466" data-name="Group 466" transform="translate(11.2 18.267)">
      <path id="Path_1075" data-name="Path 1075" d="M27.486,61.358a10.878,10.878,0,0,0-2.778-1.433c-.994-.351-1.93-.7-2.778-.994A12.5,12.5,0,0,1,19.8,58a1.385,1.385,0,0,1-.848-1.257,1.555,1.555,0,0,1,.965-1.433,5.089,5.089,0,0,1,2.31-.468,6.465,6.465,0,0,1,2.456.5,9.183,9.183,0,0,1,2.105,1.2l3.07-4.62a8.316,8.316,0,0,0-1.491-.906,17.129,17.129,0,0,0-1.959-.819,13.34,13.34,0,0,0-2.251-.556,16.241,16.241,0,0,0-2.368-.234,12.287,12.287,0,0,0-3.45.468,9.009,9.009,0,0,0-2.953,1.462,7.227,7.227,0,0,0-2.076,2.339,6.109,6.109,0,0,0-.789,3.1,5.51,5.51,0,0,0,.819,3.158A7.6,7.6,0,0,0,15.469,62a14.455,14.455,0,0,0,2.778,1.374c.994.351,1.93.7,2.778,1.023a10.363,10.363,0,0,1,2.134,1.053,1.675,1.675,0,0,1,.848,1.462,1.739,1.739,0,0,1-.906,1.462,3.942,3.942,0,0,1-2.193.556,10.675,10.675,0,0,1-3.567-.643A8.9,8.9,0,0,1,14.358,66.5L11.2,71.065a16.17,16.17,0,0,0,4.59,2.456,16.663,16.663,0,0,0,5,.877,13.551,13.551,0,0,0,3.626-.468,9.622,9.622,0,0,0,3.07-1.462,8.026,8.026,0,0,0,2.134-2.31,6.02,6.02,0,0,0,.819-3.07,6.187,6.187,0,0,0-.819-3.421A8.087,8.087,0,0,0,27.486,61.358Z" transform="translate(-11.2 -44.166)" fill="#2c272d"/>
      <path id="Path_1076" data-name="Path 1076" d="M93.306,56.323c-1.813-.029-2.69-1.111-2.69-3.333l.117-10,6.374.058.058-5.321-6.4-.058.058-6.111L84.8,31.5l-.058,6.111-4.181-.058L80.5,42.874l4.152.058-.117,10.2c-.058,5.672,2.865,8.8,7.748,8.859a8.847,8.847,0,0,0,6.491-2.31l-2.661-4.5A3.769,3.769,0,0,1,93.306,56.323Z" transform="translate(-60.238 -31.5)" fill="#2c272d"/>
      <path id="Path_1077" data-name="Path 1077" d="M160.948,54.027a9.092,9.092,0,0,0-7.163-3.128,10.473,10.473,0,0,0-8.128,3.45,13.028,13.028,0,0,0-3.362,8.947,12.309,12.309,0,0,0,3.216,8.947,10.388,10.388,0,0,0,8.011,3.625,8.92,8.92,0,0,0,7.222-3.187l-.029,2.573,6.052.058.263-23.624-6.052-.058Zm-1.93,14.239a5.909,5.909,0,0,1-8.918-.088,7.321,7.321,0,0,1,.088-9.678,5.784,5.784,0,0,1,4.5-1.93,5.682,5.682,0,0,1,4.415,2.017,6.918,6.918,0,0,1,1.725,4.853A7,7,0,0,1,159.019,68.266Z" transform="translate(-103.964 -45.227)" fill="#2c272d"/>
      <path id="Path_1078" data-name="Path 1078" d="M254.652,52a7.889,7.889,0,0,0-6.7,2.924l.029-2.31-6.023-.058L241.7,76.178l6.023.058.146-13.42c.029-3.216,1.871-5.2,4.883-5.175,2.895.029,4.766,2.076,4.737,5.263l-.146,13.42,6.023.058.146-14.3C263.57,55.946,260.12,52.057,254.652,52Z" transform="translate(-174.307 -46.005)" fill="#2c272d"/>
      <path id="Path_1079" data-name="Path 1079" d="M344.1,56.322a9.2,9.2,0,0,0-7.163-2.924,10.513,10.513,0,0,0-7.836,3.275,12.064,12.064,0,0,0-3.3,8.45,12.071,12.071,0,0,0,3.1,8.625,10.232,10.232,0,0,0,7.748,3.479,9.234,9.234,0,0,0,7.222-3.041l-.029,2.076c-.029,4.006-2.485,6.2-6.578,6.14a11.4,11.4,0,0,1-6.871-2.4l-3.07,4.62c2.4,2.134,5.789,3.216,10.263,3.275,5.76.058,12.251-2.544,12.368-11.841l.234-21.987-6.052-.058Zm-1.871,13.42a6.072,6.072,0,0,1-8.684-.088,6.171,6.171,0,0,1-1.725-4.5,6.25,6.25,0,0,1,1.813-4.473,6.072,6.072,0,0,1,8.684.088,6.744,6.744,0,0,1-.088,8.976Z" transform="translate(-233.816 -46.996)" fill="#2c272d"/>
      <path id="Path_1080" data-name="Path 1080" d="M437.682,54.659l-.029,2.368a9.092,9.092,0,0,0-7.163-3.128,10.473,10.473,0,0,0-8.128,3.45A13.028,13.028,0,0,0,419,66.3a12.432,12.432,0,0,0,3.216,8.947,10.387,10.387,0,0,0,8.011,3.625,8.92,8.92,0,0,0,7.222-3.187l-.029,2.573,6.052.058.263-23.624Zm-1.959,16.578a5.909,5.909,0,0,1-8.918-.088,7.321,7.321,0,0,1,.088-9.678,5.784,5.784,0,0,1,4.5-1.93,5.682,5.682,0,0,1,4.415,2.017,6.918,6.918,0,0,1,1.725,4.853A7,7,0,0,1,435.723,71.237Z" transform="translate(-299.767 -47.349)" fill="#2c272d"/>
    </g>
    <path id="Path_1081" data-name="Path 1081" d="M561.4,12.8a24.5,24.5,0,1,0,24.5,24.5A24.494,24.494,0,0,0,561.4,12.8Zm6.491,36.606h-12.1V43.354H558.8v-12.1h-3.012V25.226h9.034V43.383h3.012v6.023Z" transform="translate(-371.996)" fill="#eb3f43"/>
  </g>
</svg>
